{
    "applications": [
        {
            "options": [
                "$APPCONFIGOPTS/Gauss/Beam7000GeV-{polarity}100-nu7.6-HorExtAngle.py",
                "$APPCONFIGOPTS/Gauss/EnableSpillover-25ns.py",
                "$DECFILESROOT/options/{event_type}.py",
                "$LBPYTHIA8ROOT/options/Pythia8.py",
                "$APPCONFIGOPTS/Gauss/TuningPythia8_Sim09.py",
                "$APPCONFIGOPTS/Gauss/Gauss-Upgrade-Baseline-20150522.py",
                "$APPCONFIGOPTS/Gauss/G4PL_FTFP_BERT_EmNoCuts.py",
                "$APPCONFIGOPTS/Gauss/Sim10_RootInTESfix.py"
            ],
            "runner": {
                "platform": "x86_64-slc6-gcc8-opt",
                "name": "gauss",
                "type": "lhcb",
                "version": "v53r2",
                "packages": ["AppConfig.v3r391", "Gen/DecFiles.v30r38"]
            }
        },
        {
            "options": [
                "$APPCONFIGOPTS/Boole/Default.py",
                "$APPCONFIGOPTS/Boole/Boole-Upgrade-Baseline-20150522.py",
                "$APPCONFIGOPTS/Boole/EnableSpillover.py",
                "$APPCONFIGOPTS/Boole/Upgrade-RichMaPMT-NoSpilloverDigi.py",
                "$APPCONFIGOPTS/Boole/xdigi.py"
            ],
            "runner": {
                "platform": "x86_64-slc6-gcc8-opt",
                "name": "boole",
                "type": "lhcb",
                "version": "v40r4",
                "packages": ["AppConfig.v3r376"]
            }
        }
    ],
    "conddb": "sim-20180530-vc-{polarity}100",
    "dddb": "dddb-20190223",
    "year": "Upgrade"
}
