{
    "applications": [
        {
            "options": [
		"$APPCONFIGOPTS/Gauss/Sim08-Beam4000GeV-{polarity}100-2012-nu2.5.py",
		"$APPCONFIGOPTS/Gauss/DataType-2012.py",
		"$APPCONFIGOPTS/Gauss/RICHRandomHits.py",
		"$APPCONFIGOPTS/Gauss/NoPacking.py",
		"$DECFILESROOT/options/{event_type}.py",
		"$LBPYTHIA8ROOT/options/Pythia8.py",
		"$APPCONFIGOPTS/Gauss/G4PL_FTFP_BERT_EmNoCuts.py"
            ],
            "runner": {
                "platform": "x86_64-slc6-gcc48-opt",
                "name": "gauss",
                "type": "lhcb",
                "version": "v49r22"
            }
        },
        {
            "options": [
		"$APPCONFIGOPTS/Boole/Default.py",
		"$APPCONFIGOPTS/Boole/DataType-2012.py",
		"$APPCONFIGOPTS/Boole/NoPacking.py",
		"$APPCONFIGOPTS/Boole/Boole-SetOdinRndTrigger.py"
            ],
            "runner": {
                "platform": "x86_64-slc6-gcc49-opt",
                "name": "boole",
                "type": "lhcb",
                "version": "v30r4"
            }
        },
        {
            "runner": {
                "name": "moore",
                "type": "lhcb"
            },
            "steps": {
                "hlt": {
                    "options": [
			"$APPCONFIGOPTS/Moore/MooreSimProductionForSeparateL0AppStep.py",
			"$APPCONFIGOPTS/Conditions/TCK-{tck}.py",
			"$APPCONFIGOPTS/Moore/DataType-2012.py"
                    ],
                    "platform": "x86_64-slc5-gcc43-opt",
                    "version": "v14r8p1g1",
                    "tck": "0x409f0045"
                },
                "l0": {
                    "options": [
			"$APPCONFIGOPTS/L0App/L0AppSimProduction.py",
			"$APPCONFIGOPTS/L0App/L0AppTCK-{tck}.py",
			"$APPCONFIGOPTS/L0App/DataType-2012.py"
                    ],
		    "platform": "x86_64-slc6-gcc49-opt",
		    "version": "v24r4",
                    "tck": "0x0045"
                }
            }
        },
        {
            "options": [
		"$APPCONFIGOPTS/Brunel/DataType-2012.py",
		"$APPCONFIGOPTS/Brunel/MC-WithTruth.py",
		"$APPCONFIGOPTS/Brunel/Sim09-Run1.py",
		"$APPCONFIGOPTS/Persistency/DST-multipleTCK-2012.py",
		"$APPCONFIGOPTS/Persistency/Compression-ZLIB-1.py"
            ],
            "runner": {
                "platform": "x86_64-slc5-gcc46-opt",
                "name": "brunel",
                "output_type": "LDST",
                "type": "lhcb",
                "version": "v43r2p13"
            }
        }
    ],
    "conddb": "sim-20160321-2-vc-{polarity}100",
    "dddb": "dddb-20170721-2",
    "year": "2012"
}
