{
    "applications": [
        {
            "options": [
		"$APPCONFIGOPTS/Gauss/Beam6500GeV-{polarity}100-2015-nu1.6.py",
		"$APPCONFIGOPTS/Gauss/EnableSpillover-25ns.py",
		"$APPCONFIGOPTS/Gauss/DataType-2015.py",
		"$APPCONFIGOPTS/Gauss/RICHRandomHits.py",
		"$DECFILESROOT/options/{event_type}.py",
		"$LBPYTHIA8ROOT/options/Pythia8.py",
		"$APPCONFIGOPTS/Gauss/G4PL_FTFP_BERT_EmNoCuts.py"
            ],
            "runner": {
                "platform": "x86_64-slc6-gcc48-opt",
                "name": "gauss",
                "type": "lhcb",
                "version": "v49r22"
            }
        },
        {
            "options": [
		"$APPCONFIGOPTS/Boole/Default.py",
		"$APPCONFIGOPTS/Boole/EnableSpillover.py",
		"$APPCONFIGOPTS/Boole/DataType-2015.py",
		"$APPCONFIGOPTS/Boole/Boole-SetOdinRndTrigger.py"
            ],
            "runner": {
                "platform": "x86_64-slc6-gcc49-opt",
                "name": "boole",
                "type": "lhcb",
                "version": "v30r4"
            }
        },
        {
            "runner": {
                "platform": "x86_64-slc6-gcc48-opt",
                "name": "moore",
                "type": "lhcb",
                "version": "v24r2"
            },
            "steps": {
                "hlt": {
                    "options": [
			"$APPCONFIGOPTS/Moore/MooreSimProductionForSeparateL0AppStep2015.py",
			"$APPCONFIGOPTS/Conditions/TCK-{tck}.py",
			"$APPCONFIGOPTS/Moore/DataType-2015.py",
			"$APPCONFIGOPTS/Persistency/Compression-ZLIB-1.py"
                    ],
                    "tck": "0x411400a2"
                },
                "l0": {
                    "options": [
			"$APPCONFIGOPTS/L0App/L0AppSimProduction.py",
			"$APPCONFIGOPTS/L0App/L0AppTCK-{tck}.py",
			"$APPCONFIGOPTS/L0App/ForceLUTVersionV8.py",
			"$APPCONFIGOPTS/L0App/DataType-2015.py",
			"$APPCONFIGOPTS/Persistency/Compression-ZLIB-1.py"
                    ],
                    "tck": "0x00a2"
                }
            }
        },
        {
            "options": [
		"$APPCONFIGOPTS/Brunel/DataType-2015.py",
		"$APPCONFIGOPTS/Brunel/MC-WithTruth.py",
		"$APPCONFIGOPTS/Persistency/Compression-ZLIB-1.py"
            ],
            "runner": {
                "platform": "x86_64-slc6-gcc49-opt",
                "name": "brunel",
                "output_type": "LDST",
                "type": "lhcb",
                "version": "v48r3"
            }
        }
    ],
    "conddb": "sim-20161124-vc-{polarity}100",
    "dddb": "dddb-20170721-3",
    "year": "2015"
}
